info face="OldEnglishTextMT" size=37 bold=0 italic=0 charset="" unicode=0 stretchH=100 smooth=1 aa=1 padding=0,0,0,0 spacing=2,2
common lineHeight=37 base=32 scaleW=512 scaleH=512 pages=1 packed=0
page id=0 file="OldEnglish.png"
chars count=189
char id=221 x=2 y=2 width=29 height=43 xoffset=0 yoffset=-5 xadvance=29 page=0 chnl=0 letter="Ý"
char id=192 x=33 y=2 width=26 height=39 xoffset=1 yoffset=-6 xadvance=26 page=0 chnl=0 letter="À"
char id=209 x=61 y=2 width=38 height=38 xoffset=-1 yoffset=-3 xadvance=37 page=0 chnl=0 letter="Ñ"
char id=210 x=101 y=2 width=31 height=38 xoffset=0 yoffset=-5 xadvance=31 page=0 chnl=0 letter="Ò"
char id=211 x=134 y=2 width=31 height=38 xoffset=0 yoffset=-5 xadvance=31 page=0 chnl=0 letter="Ó"
char id=212 x=167 y=2 width=31 height=38 xoffset=0 yoffset=-5 xadvance=31 page=0 chnl=0 letter="Ô"
char id=217 x=200 y=2 width=31 height=38 xoffset=0 yoffset=-5 xadvance=31 page=0 chnl=0 letter="Ù"
char id=218 x=233 y=2 width=31 height=38 xoffset=0 yoffset=-5 xadvance=31 page=0 chnl=0 letter="Ú"
char id=193 x=266 y=2 width=26 height=38 xoffset=1 yoffset=-5 xadvance=26 page=0 chnl=0 letter="Á"
char id=194 x=294 y=2 width=26 height=38 xoffset=1 yoffset=-5 xadvance=26 page=0 chnl=0 letter="Â"
char id=197 x=322 y=2 width=26 height=38 xoffset=1 yoffset=-5 xadvance=26 page=0 chnl=0 letter="Å"
char id=200 x=350 y=2 width=26 height=38 xoffset=1 yoffset=-5 xadvance=26 page=0 chnl=0 letter="È"
char id=201 x=378 y=2 width=26 height=38 xoffset=1 yoffset=-5 xadvance=26 page=0 chnl=0 letter="É"
char id=202 x=406 y=2 width=26 height=38 xoffset=1 yoffset=-5 xadvance=26 page=0 chnl=0 letter="Ê"
char id=204 x=434 y=2 width=23 height=38 xoffset=0 yoffset=-5 xadvance=22 page=0 chnl=0 letter="Ì"
char id=205 x=459 y=2 width=23 height=38 xoffset=0 yoffset=-5 xadvance=22 page=0 chnl=0 letter="Í"
char id=206 x=484 y=2 width=23 height=38 xoffset=0 yoffset=-5 xadvance=22 page=0 chnl=0 letter="Î"
char id=219 x=2 y=47 width=31 height=37 xoffset=0 yoffset=-4 xadvance=31 page=0 chnl=0 letter="Û"
char id=196 x=35 y=47 width=26 height=37 xoffset=1 yoffset=-4 xadvance=26 page=0 chnl=0 letter="Ä"
char id=213 x=63 y=47 width=31 height=36 xoffset=0 yoffset=-3 xadvance=31 page=0 chnl=0 letter="Õ"
char id=214 x=96 y=47 width=31 height=36 xoffset=0 yoffset=-3 xadvance=31 page=0 chnl=0 letter="Ö"
char id=220 x=129 y=47 width=31 height=36 xoffset=0 yoffset=-3 xadvance=31 page=0 chnl=0 letter="Ü"
char id=195 x=162 y=47 width=26 height=36 xoffset=1 yoffset=-3 xadvance=26 page=0 chnl=0 letter="Ã"
char id=203 x=190 y=47 width=26 height=36 xoffset=1 yoffset=-3 xadvance=26 page=0 chnl=0 letter="Ë"
char id=207 x=218 y=47 width=23 height=36 xoffset=0 yoffset=-3 xadvance=22 page=0 chnl=0 letter="Ï"
char id=40 x=243 y=47 width=12 height=36 xoffset=1 yoffset=4 xadvance=12 page=0 chnl=0 letter="("
char id=41 x=257 y=47 width=12 height=36 xoffset=0 yoffset=4 xadvance=12 page=0 chnl=0 letter=")"
char id=64 x=271 y=47 width=34 height=35 xoffset=0 yoffset=6 xadvance=34 page=0 chnl=0 letter="@"
char id=89 x=307 y=47 width=29 height=35 xoffset=0 yoffset=3 xadvance=29 page=0 chnl=0 letter="Y"
char id=199 x=338 y=47 width=26 height=35 xoffset=1 yoffset=4 xadvance=26 page=0 chnl=0 letter="Ç"
char id=182 x=366 y=47 width=19 height=35 xoffset=-1 yoffset=6 xadvance=16 page=0 chnl=0 letter="¶"
char id=167 x=387 y=47 width=17 height=35 xoffset=1 yoffset=4 xadvance=18 page=0 chnl=0 letter="§"
char id=123 x=406 y=47 width=12 height=35 xoffset=2 yoffset=6 xadvance=14 page=0 chnl=0 letter="{"
char id=125 x=420 y=47 width=12 height=35 xoffset=1 yoffset=6 xadvance=14 page=0 chnl=0 letter="}"
char id=91 x=434 y=47 width=10 height=35 xoffset=1 yoffset=4 xadvance=10 page=0 chnl=0 letter="["
char id=93 x=446 y=47 width=9 height=35 xoffset=0 yoffset=4 xadvance=10 page=0 chnl=0 letter="]"
char id=70 x=457 y=47 width=32 height=34 xoffset=0 yoffset=4 xadvance=31 page=0 chnl=0 letter="F"
char id=72 x=2 y=86 width=31 height=34 xoffset=0 yoffset=4 xadvance=31 page=0 chnl=0 letter="H"
char id=80 x=35 y=86 width=30 height=34 xoffset=0 yoffset=4 xadvance=31 page=0 chnl=0 letter="P"
char id=222 x=67 y=86 width=30 height=34 xoffset=0 yoffset=4 xadvance=31 page=0 chnl=0 letter="Þ"
char id=253 x=99 y=86 width=17 height=34 xoffset=0 yoffset=4 xadvance=16 page=0 chnl=0 letter="ý"
char id=255 x=118 y=86 width=17 height=34 xoffset=0 yoffset=4 xadvance=16 page=0 chnl=0 letter="ÿ"
char id=66 x=137 y=86 width=30 height=33 xoffset=0 yoffset=4 xadvance=31 page=0 chnl=0 letter="B"
char id=74 x=169 y=86 width=25 height=33 xoffset=0 yoffset=4 xadvance=25 page=0 chnl=0 letter="J"
char id=223 x=196 y=86 width=19 height=33 xoffset=0 yoffset=5 xadvance=18 page=0 chnl=0 letter="ß"
char id=104 x=217 y=86 width=16 height=33 xoffset=0 yoffset=5 xadvance=16 page=0 chnl=0 letter="h"
char id=254 x=235 y=86 width=16 height=33 xoffset=0 yoffset=5 xadvance=16 page=0 chnl=0 letter="þ"
char id=106 x=253 y=86 width=10 height=33 xoffset=0 yoffset=5 xadvance=10 page=0 chnl=0 letter="j"
char id=124 x=265 y=86 width=5 height=33 xoffset=8 yoffset=5 xadvance=20 page=0 chnl=0 letter="|"
char id=166 x=272 y=86 width=5 height=33 xoffset=8 yoffset=5 xadvance=20 page=0 chnl=0 letter="¦"
char id=77 x=279 y=86 width=39 height=32 xoffset=-1 yoffset=4 xadvance=37 page=0 chnl=0 letter="M"
char id=36 x=320 y=86 width=19 height=32 xoffset=0 yoffset=4 xadvance=18 page=0 chnl=0 letter="$"
char id=78 x=341 y=86 width=38 height=31 xoffset=-1 yoffset=4 xadvance=37 page=0 chnl=0 letter="N"
char id=216 x=381 y=86 width=31 height=31 xoffset=0 yoffset=3 xadvance=31 page=0 chnl=0 letter="Ø"
char id=81 x=414 y=86 width=32 height=30 xoffset=0 yoffset=4 xadvance=31 page=0 chnl=0 letter="Q"
char id=83 x=448 y=86 width=31 height=30 xoffset=0 yoffset=4 xadvance=31 page=0 chnl=0 letter="S"
char id=68 x=2 y=122 width=30 height=30 xoffset=0 yoffset=4 xadvance=31 page=0 chnl=0 letter="D"
char id=208 x=34 y=122 width=30 height=30 xoffset=0 yoffset=4 xadvance=31 page=0 chnl=0 letter="Ð"
char id=198 x=66 y=122 width=44 height=29 xoffset=0 yoffset=4 xadvance=43 page=0 chnl=0 letter="Æ"
char id=87 x=112 y=122 width=37 height=29 xoffset=0 yoffset=4 xadvance=37 page=0 chnl=0 letter="W"
char id=75 x=151 y=122 width=32 height=29 xoffset=0 yoffset=4 xadvance=31 page=0 chnl=0 letter="K"
char id=82 x=185 y=122 width=32 height=29 xoffset=0 yoffset=4 xadvance=31 page=0 chnl=0 letter="R"
char id=79 x=219 y=122 width=31 height=29 xoffset=0 yoffset=4 xadvance=31 page=0 chnl=0 letter="O"
char id=85 x=252 y=122 width=31 height=29 xoffset=0 yoffset=4 xadvance=31 page=0 chnl=0 letter="U"
char id=84 x=285 y=122 width=30 height=29 xoffset=0 yoffset=4 xadvance=29 page=0 chnl=0 letter="T"
char id=71 x=317 y=122 width=29 height=29 xoffset=0 yoffset=4 xadvance=29 page=0 chnl=0 letter="G"
char id=38 x=348 y=122 width=28 height=29 xoffset=1 yoffset=4 xadvance=29 page=0 chnl=0 letter="&"
char id=76 x=378 y=122 width=27 height=29 xoffset=0 yoffset=4 xadvance=26 page=0 chnl=0 letter="L"
char id=86 x=407 y=122 width=27 height=29 xoffset=0 yoffset=4 xadvance=26 page=0 chnl=0 letter="V"
char id=65 x=436 y=122 width=26 height=29 xoffset=1 yoffset=4 xadvance=26 page=0 chnl=0 letter="A"
char id=67 x=464 y=122 width=26 height=29 xoffset=1 yoffset=4 xadvance=26 page=0 chnl=0 letter="C"
char id=69 x=2 y=154 width=26 height=29 xoffset=1 yoffset=4 xadvance=26 page=0 chnl=0 letter="E"
char id=88 x=30 y=154 width=25 height=29 xoffset=0 yoffset=4 xadvance=25 page=0 chnl=0 letter="X"
char id=73 x=57 y=154 width=23 height=29 xoffset=0 yoffset=4 xadvance=22 page=0 chnl=0 letter="I"
char id=90 x=82 y=154 width=23 height=29 xoffset=0 yoffset=4 xadvance=22 page=0 chnl=0 letter="Z"
char id=249 x=107 y=154 width=19 height=29 xoffset=0 yoffset=4 xadvance=18 page=0 chnl=0 letter="ù"
char id=250 x=128 y=154 width=19 height=29 xoffset=0 yoffset=4 xadvance=18 page=0 chnl=0 letter="ú"
char id=251 x=149 y=154 width=19 height=29 xoffset=0 yoffset=4 xadvance=18 page=0 chnl=0 letter="û"
char id=252 x=170 y=154 width=19 height=29 xoffset=0 yoffset=4 xadvance=18 page=0 chnl=0 letter="ü"
char id=224 x=191 y=154 width=17 height=29 xoffset=0 yoffset=4 xadvance=16 page=0 chnl=0 letter="à"
char id=225 x=210 y=154 width=17 height=29 xoffset=0 yoffset=4 xadvance=16 page=0 chnl=0 letter="á"
char id=226 x=229 y=154 width=17 height=29 xoffset=0 yoffset=4 xadvance=16 page=0 chnl=0 letter="â"
char id=228 x=248 y=154 width=17 height=29 xoffset=0 yoffset=4 xadvance=16 page=0 chnl=0 letter="ä"
char id=229 x=267 y=154 width=17 height=29 xoffset=0 yoffset=4 xadvance=16 page=0 chnl=0 letter="å"
char id=232 x=286 y=154 width=15 height=29 xoffset=0 yoffset=4 xadvance=14 page=0 chnl=0 letter="è"
char id=233 x=303 y=154 width=15 height=29 xoffset=0 yoffset=4 xadvance=14 page=0 chnl=0 letter="é"
char id=234 x=320 y=154 width=15 height=29 xoffset=0 yoffset=4 xadvance=14 page=0 chnl=0 letter="ê"
char id=235 x=337 y=154 width=15 height=29 xoffset=0 yoffset=4 xadvance=14 page=0 chnl=0 letter="ë"
char id=242 x=354 y=154 width=15 height=29 xoffset=0 yoffset=4 xadvance=16 page=0 chnl=0 letter="ò"
char id=243 x=371 y=154 width=15 height=29 xoffset=0 yoffset=4 xadvance=16 page=0 chnl=0 letter="ó"
char id=244 x=388 y=154 width=15 height=29 xoffset=0 yoffset=4 xadvance=16 page=0 chnl=0 letter="ô"
char id=246 x=405 y=154 width=15 height=29 xoffset=0 yoffset=4 xadvance=16 page=0 chnl=0 letter="ö"
char id=162 x=422 y=154 width=13 height=29 xoffset=1 yoffset=8 xadvance=13 page=0 chnl=0 letter="¢"
char id=238 x=437 y=154 width=13 height=29 xoffset=-1 yoffset=4 xadvance=10 page=0 chnl=0 letter="î"
char id=239 x=452 y=154 width=13 height=29 xoffset=-1 yoffset=4 xadvance=10 page=0 chnl=0 letter="ï"
char id=236 x=467 y=154 width=10 height=29 xoffset=0 yoffset=4 xadvance=10 page=0 chnl=0 letter="ì"
char id=237 x=479 y=154 width=10 height=29 xoffset=0 yoffset=4 xadvance=10 page=0 chnl=0 letter="í"
char id=190 x=2 y=185 width=32 height=28 xoffset=2 yoffset=6 xadvance=37 page=0 chnl=0 letter="¾"
char id=37 x=36 y=185 width=30 height=28 xoffset=3 yoffset=6 xadvance=36 page=0 chnl=0 letter="%"
char id=188 x=68 y=185 width=29 height=28 xoffset=5 yoffset=6 xadvance=37 page=0 chnl=0 letter="¼"
char id=189 x=99 y=185 width=29 height=28 xoffset=5 yoffset=6 xadvance=37 page=0 chnl=0 letter="½"
char id=169 x=130 y=185 width=28 height=28 xoffset=0 yoffset=6 xadvance=28 page=0 chnl=0 letter="©"
char id=174 x=160 y=185 width=28 height=28 xoffset=0 yoffset=6 xadvance=28 page=0 chnl=0 letter="®"
char id=35 x=190 y=185 width=24 height=28 xoffset=0 yoffset=6 xadvance=24 page=0 chnl=0 letter="#"
char id=177 x=216 y=185 width=22 height=28 xoffset=1 yoffset=6 xadvance=24 page=0 chnl=0 letter="±"
char id=47 x=240 y=185 width=21 height=28 xoffset=0 yoffset=6 xadvance=20 page=0 chnl=0 letter="/"
char id=92 x=263 y=185 width=21 height=28 xoffset=0 yoffset=6 xadvance=20 page=0 chnl=0 letter="\"
char id=107 x=286 y=185 width=19 height=28 xoffset=0 yoffset=5 xadvance=18 page=0 chnl=0 letter="k"
char id=241 x=307 y=185 width=19 height=28 xoffset=0 yoffset=5 xadvance=18 page=0 chnl=0 letter="ñ"
char id=227 x=328 y=185 width=17 height=28 xoffset=0 yoffset=5 xadvance=16 page=0 chnl=0 letter="ã"
char id=98 x=347 y=185 width=16 height=28 xoffset=0 yoffset=5 xadvance=16 page=0 chnl=0 letter="b"
char id=240 x=365 y=185 width=16 height=28 xoffset=0 yoffset=5 xadvance=16 page=0 chnl=0 letter="ð"
char id=245 x=383 y=185 width=15 height=28 xoffset=0 yoffset=5 xadvance=16 page=0 chnl=0 letter="õ"
char id=102 x=400 y=185 width=11 height=28 xoffset=0 yoffset=5 xadvance=10 page=0 chnl=0 letter="f"
char id=108 x=413 y=185 width=11 height=28 xoffset=0 yoffset=5 xadvance=10 page=0 chnl=0 letter="l"
char id=105 x=426 y=185 width=10 height=28 xoffset=0 yoffset=5 xadvance=10 page=0 chnl=0 letter="i"
char id=165 x=438 y=185 width=27 height=27 xoffset=0 yoffset=6 xadvance=26 page=0 chnl=0 letter="¥"
char id=163 x=467 y=185 width=25 height=27 xoffset=0 yoffset=6 xadvance=25 page=0 chnl=0 letter="£"
char id=181 x=2 y=215 width=21 height=27 xoffset=-1 yoffset=14 xadvance=18 page=0 chnl=0 letter="µ"
char id=50 x=25 y=215 width=19 height=27 xoffset=0 yoffset=6 xadvance=18 page=0 chnl=0 letter="2"
char id=51 x=46 y=215 width=19 height=27 xoffset=0 yoffset=6 xadvance=18 page=0 chnl=0 letter="3"
char id=52 x=67 y=215 width=19 height=27 xoffset=0 yoffset=6 xadvance=18 page=0 chnl=0 letter="4"
char id=53 x=88 y=215 width=19 height=27 xoffset=0 yoffset=6 xadvance=18 page=0 chnl=0 letter="5"
char id=54 x=109 y=215 width=19 height=27 xoffset=0 yoffset=6 xadvance=18 page=0 chnl=0 letter="6"
char id=55 x=130 y=215 width=19 height=27 xoffset=0 yoffset=6 xadvance=18 page=0 chnl=0 letter="7"
char id=56 x=151 y=215 width=19 height=27 xoffset=0 yoffset=6 xadvance=18 page=0 chnl=0 letter="8"
char id=57 x=172 y=215 width=19 height=27 xoffset=0 yoffset=6 xadvance=18 page=0 chnl=0 letter="9"
char id=48 x=193 y=215 width=19 height=27 xoffset=0 yoffset=6 xadvance=18 page=0 chnl=0 letter="0"
char id=100 x=214 y=215 width=16 height=27 xoffset=0 yoffset=6 xadvance=16 page=0 chnl=0 letter="d"
char id=49 x=232 y=215 width=14 height=27 xoffset=3 yoffset=6 xadvance=18 page=0 chnl=0 letter="1"
char id=191 x=248 y=215 width=13 height=27 xoffset=0 yoffset=11 xadvance=12 page=0 chnl=0 letter="¿"
char id=231 x=263 y=215 width=13 height=27 xoffset=0 yoffset=12 xadvance=12 page=0 chnl=0 letter="ç"
char id=63 x=278 y=215 width=12 height=27 xoffset=0 yoffset=6 xadvance=12 page=0 chnl=0 letter="?"
char id=33 x=292 y=215 width=8 height=27 xoffset=1 yoffset=6 xadvance=10 page=0 chnl=0 letter="!"
char id=161 x=302 y=215 width=8 height=27 xoffset=1 yoffset=11 xadvance=10 page=0 chnl=0 letter="¡"
char id=119 x=312 y=215 width=25 height=26 xoffset=0 yoffset=7 xadvance=25 page=0 chnl=0 letter="w"
char id=103 x=339 y=215 width=17 height=26 xoffset=2 yoffset=12 xadvance=18 page=0 chnl=0 letter="g"
char id=112 x=358 y=215 width=17 height=26 xoffset=-1 yoffset=12 xadvance=16 page=0 chnl=0 letter="p"
char id=118 x=377 y=215 width=17 height=26 xoffset=-1 yoffset=7 xadvance=16 page=0 chnl=0 letter="v"
char id=121 x=396 y=215 width=17 height=26 xoffset=0 yoffset=12 xadvance=16 page=0 chnl=0 letter="y"
char id=113 x=415 y=215 width=15 height=26 xoffset=1 yoffset=12 xadvance=16 page=0 chnl=0 letter="q"
char id=122 x=432 y=215 width=12 height=26 xoffset=0 yoffset=12 xadvance=12 page=0 chnl=0 letter="z"
char id=116 x=446 y=215 width=11 height=26 xoffset=0 yoffset=7 xadvance=10 page=0 chnl=0 letter="t"
char id=115 x=459 y=215 width=18 height=24 xoffset=-1 yoffset=9 xadvance=16 page=0 chnl=0 letter="s"
char id=59 x=479 y=215 width=8 height=24 xoffset=1 yoffset=12 xadvance=10 page=0 chnl=0 letter=";"
char id=60 x=2 y=244 width=22 height=22 xoffset=1 yoffset=9 xadvance=24 page=0 chnl=0 letter="<"
char id=62 x=26 y=244 width=22 height=22 xoffset=1 yoffset=9 xadvance=24 page=0 chnl=0 letter=">"
char id=43 x=50 y=244 width=22 height=22 xoffset=1 yoffset=9 xadvance=24 page=0 chnl=0 letter="+"
char id=109 x=74 y=244 width=27 height=21 xoffset=0 yoffset=12 xadvance=26 page=0 chnl=0 letter="m"
char id=230 x=103 y=244 width=23 height=21 xoffset=0 yoffset=12 xadvance=22 page=0 chnl=0 letter="æ"
char id=247 x=128 y=244 width=22 height=21 xoffset=1 yoffset=9 xadvance=24 page=0 chnl=0 letter="÷"
char id=110 x=152 y=244 width=19 height=21 xoffset=0 yoffset=12 xadvance=18 page=0 chnl=0 letter="n"
char id=117 x=173 y=244 width=19 height=21 xoffset=0 yoffset=12 xadvance=18 page=0 chnl=0 letter="u"
char id=120 x=194 y=244 width=19 height=21 xoffset=0 yoffset=12 xadvance=18 page=0 chnl=0 letter="x"
char id=97 x=215 y=244 width=17 height=21 xoffset=0 yoffset=12 xadvance=16 page=0 chnl=0 letter="a"
char id=101 x=234 y=244 width=15 height=21 xoffset=0 yoffset=12 xadvance=14 page=0 chnl=0 letter="e"
char id=111 x=251 y=244 width=15 height=21 xoffset=0 yoffset=12 xadvance=16 page=0 chnl=0 letter="o"
char id=114 x=268 y=244 width=15 height=21 xoffset=0 yoffset=12 xadvance=14 page=0 chnl=0 letter="r"
char id=171 x=285 y=244 width=15 height=21 xoffset=0 yoffset=11 xadvance=14 page=0 chnl=0 letter="«"
char id=187 x=302 y=244 width=15 height=21 xoffset=0 yoffset=11 xadvance=14 page=0 chnl=0 letter="»"
char id=248 x=319 y=244 width=15 height=21 xoffset=0 yoffset=12 xadvance=16 page=0 chnl=0 letter="ø"
char id=99 x=336 y=244 width=13 height=21 xoffset=0 yoffset=12 xadvance=12 page=0 chnl=0 letter="c"
char id=58 x=351 y=244 width=8 height=21 xoffset=1 yoffset=12 xadvance=10 page=0 chnl=0 letter=":"
char id=164 x=361 y=244 width=21 height=20 xoffset=2 yoffset=10 xadvance=25 page=0 chnl=0 letter="¤"
char id=215 x=384 y=244 width=21 height=20 xoffset=2 yoffset=10 xadvance=24 page=0 chnl=0 letter="×"
char id=42 x=407 y=244 width=19 height=18 xoffset=0 yoffset=4 xadvance=18 page=0 chnl=0 letter="*"
char id=179 x=428 y=244 width=13 height=16 xoffset=-1 yoffset=6 xadvance=12 page=0 chnl=0 letter="³"
char id=178 x=443 y=244 width=12 height=16 xoffset=0 yoffset=6 xadvance=12 page=0 chnl=0 letter="²"
char id=185 x=457 y=244 width=9 height=16 xoffset=2 yoffset=6 xadvance=12 page=0 chnl=0 letter="¹"
char id=94 x=468 y=244 width=18 height=15 xoffset=2 yoffset=6 xadvance=21 page=0 chnl=0 letter="^"
char id=176 x=488 y=244 width=15 height=15 xoffset=0 yoffset=6 xadvance=14 page=0 chnl=0 letter="°"
char id=61 x=2 y=268 width=22 height=14 xoffset=1 yoffset=13 xadvance=24 page=0 chnl=0 letter="="
char id=172 x=26 y=268 width=22 height=14 xoffset=1 yoffset=13 xadvance=24 page=0 chnl=0 letter="¬"
char id=34 x=50 y=268 width=15 height=14 xoffset=2 yoffset=6 xadvance=20 page=0 chnl=0 letter="""
char id=39 x=67 y=268 width=6 height=14 xoffset=2 yoffset=6 xadvance=10 page=0 chnl=0 letter="'"
char id=170 x=75 y=268 width=12 height=13 xoffset=0 yoffset=4 xadvance=11 page=0 chnl=0 letter="ª"
char id=186 x=89 y=268 width=10 height=13 xoffset=0 yoffset=4 xadvance=10 page=0 chnl=0 letter="º"
char id=44 x=101 y=268 width=8 height=11 xoffset=1 yoffset=25 xadvance=10 page=0 chnl=0 letter=","
char id=126 x=111 y=268 width=22 height=8 xoffset=1 yoffset=16 xadvance=24 page=0 chnl=0 letter="~"
char id=184 x=135 y=268 width=9 height=8 xoffset=2 yoffset=31 xadvance=12 page=0 chnl=0 letter="¸"
char id=96 x=146 y=268 width=8 height=8 xoffset=1 yoffset=4 xadvance=12 page=0 chnl=0 letter="`"
char id=46 x=156 y=268 width=8 height=8 xoffset=1 yoffset=25 xadvance=10 page=0 chnl=0 letter="."
char id=180 x=166 y=268 width=8 height=8 xoffset=3 yoffset=4 xadvance=12 page=0 chnl=0 letter="´"
char id=183 x=176 y=268 width=8 height=7 xoffset=1 yoffset=16 xadvance=10 page=0 chnl=0 letter="·"
char id=168 x=186 y=268 width=13 height=6 xoffset=0 yoffset=4 xadvance=12 page=0 chnl=0 letter="¨"
char id=175 x=201 y=268 width=13 height=5 xoffset=0 yoffset=6 xadvance=12 page=0 chnl=0 letter="¯"
char id=45 x=216 y=268 width=8 height=5 xoffset=5 yoffset=20 xadvance=14 page=0 chnl=0 letter="-"
char id=95 x=226 y=268 width=21 height=4 xoffset=-1 yoffset=34 xadvance=18 page=0 chnl=0 letter="_"
char id=32 x=315 y=268 width=0 height=0 xoffset=-111 yoffset=152 xadvance=9 page=0 chnl=0 letter="space"
kernings count=57
kerning first=89 second=105 amount=-1
kerning first=89 second=59 amount=-1
kerning first=89 second=117 amount=-1
kerning first=89 second=97 amount=-1
kerning first=89 second=101 amount=-1
kerning first=89 second=58 amount=-1
kerning first=89 second=44 amount=-5
kerning first=89 second=46 amount=-4
kerning first=89 second=45 amount=-2
kerning first=70 second=65 amount=-2
kerning first=70 second=44 amount=-6
kerning first=70 second=46 amount=-6
kerning first=80 second=44 amount=-2
kerning first=80 second=46 amount=-2
kerning first=87 second=59 amount=-1
kerning first=87 second=97 amount=-1
kerning first=87 second=58 amount=-1
kerning first=87 second=44 amount=-5
kerning first=87 second=46 amount=-6
kerning first=87 second=45 amount=-1
kerning first=82 second=89 amount=-1
kerning first=82 second=87 amount=-3
kerning first=82 second=84 amount=-2
kerning first=82 second=86 amount=-2
kerning first=82 second=121 amount=-1
kerning first=84 second=65 amount=-1
kerning first=84 second=59 amount=-1
kerning first=84 second=114 amount=-1
kerning first=84 second=58 amount=-1
kerning first=84 second=44 amount=-2
kerning first=84 second=46 amount=-2
kerning first=84 second=45 amount=-1
kerning first=76 second=87 amount=-3
kerning first=76 second=84 amount=-2
kerning first=76 second=86 amount=-3
kerning first=76 second=121 amount=-1
kerning first=86 second=44 amount=-5
kerning first=86 second=46 amount=-6
kerning first=86 second=45 amount=-2
kerning first=65 second=87 amount=-1
kerning first=65 second=84 amount=-1
kerning first=65 second=86 amount=-1
kerning first=65 second=121 amount=-1
kerning first=33 second=182 amount=-2
kerning first=33 second=235 amount=-6
kerning first=33 second=236 amount=-6
kerning first=119 second=44 amount=-1
kerning first=119 second=46 amount=-1
kerning first=118 second=44 amount=-1
kerning first=118 second=46 amount=-1
kerning first=121 second=44 amount=-3
kerning first=121 second=46 amount=-3
kerning first=114 second=44 amount=-2
kerning first=114 second=46 amount=-2
kerning first=114 second=45 amount=-2
kerning first=34 second=235 amount=-2
kerning first=34 second=236 amount=-2
